…
### 106年度薪資較103年度薪資高的職業有哪些?

``` r
#這是R Code Chunk
join_103_106edu$percent<-(join_103_106edu$`大學-薪資.x`/join_103_106edu$`大學-薪資.y`)
#先新增一個percent欄位，存的是106大學薪資/103
result<-arrange(join_103_106edu,desc(percent))
#我們用result存由大到小排列的資料表
filter(result,percent>1)
```

    ## # A tibble: 104 x 28
    ##    年度.x 大職業別 `經常性薪資-薪資.x`~ `經常性薪資-女/男.x`~ `國中及以下-薪資.x`~
    ##     <dbl> <chr>               <dbl> <chr>            <chr>           
    ##  1   2017 其他服務業-技~            27270 98.31            —               
    ##  2   2017 住宿及餐飲業-~            24468 99.76            23639           
    ##  3   2017 用水供應及污染~            31505 98.77            —               
    ##  4   2017 專業_科學及技~            35538 98.8             —               
    ##  5   2017 其他服務業-技~            24938 98.2             —               
    ##  6   2017 營造業-服務及~            27308 96.68            24667           
    ##  7   2017 其他服務業-專~            32250 100              —               
    ##  8   2017 資訊及通訊傳播~            33646 99.03            —               
    ##  9   2017 不動產業-專業~            34237 100              —               
    ## 10   2017 教育服務業-事~            24326 98.42            —               
    ## # ... with 94 more rows, and 23 more variables:
    ## #   `國中及以下-女/男.x` <chr>, `高中或高職-薪資.x` <chr>,
    ## #   `高中或高職-女/男.x` <chr>, `專科-薪資.x` <chr>, `專科-女/男.x` <chr>,
    ## #   `大學-薪資.x` <dbl>, `大學-女/男.x` <chr>,
    ## #   `研究所及以上-薪資.x` <chr>, `研究所及以上-女/男.x` <chr>,
    ## #   年度.y <dbl>, `經常性薪資-薪資.y` <dbl>, `經常性薪資-女/男.y` <dbl>,
    ## #   `國中及以下-薪資.y` <chr>, `國中及以下-女/男.y` <chr>,
    ## #   `高中或高職-薪資.y` <chr>, `高中或高職-女/男.y` <chr>,
    ## #   `專科-薪資.y` <chr>, `專科-女/男.y` <chr>, `大學-薪資.y` <dbl>,
…
